<?xml version="1.0" encoding="UTF-8"?>
<svg xmlns="http://www.w3.org/2000/svg" xmlns:xlink="http://www.w3.org/1999/xlink" width="504pt" height="504pt" viewBox="0 0 504 504" version="1.1">
<defs>
<g>
<symbol overflow="visible" id="glyph0-0">
<path style="stroke:none;" d=""/>
</symbol>
<symbol overflow="visible" id="glyph0-1">
<path style="stroke:none;" d="M 5.6875 -2.625 L 6.59375 0 L 7.84375 0 L 4.765625 -8.75 L 3.328125 -8.75 L 0.203125 0 L 1.390625 0 L 2.3125 -2.625 L 5.6875 -2.625 Z M 5.375 -3.5625 L 2.59375 -3.5625 L 4.03125 -7.546875 L 5.375 -3.5625 Z M 5.375 -3.5625 "/>
</symbol>
<symbol overflow="visible" id="glyph0-2">
<path style="stroke:none;" d="M 0.953125 0 L 4.890625 0 C 5.71875 0 6.34375 -0.234375 6.796875 -0.734375 C 7.234375 -1.1875 7.46875 -1.8125 7.46875 -2.5 C 7.46875 -3.546875 7 -4.1875 5.875 -4.625 C 6.671875 -4.984375 7.09375 -5.640625 7.09375 -6.53125 C 7.09375 -7.15625 6.859375 -7.734375 6.390625 -8.140625 C 5.9375 -8.5625 5.34375 -8.75 4.5 -8.75 L 0.953125 -8.75 L 0.953125 0 Z M 2.0625 -4.984375 L 2.0625 -7.765625 L 4.21875 -7.765625 C 4.84375 -7.765625 5.203125 -7.6875 5.5 -7.453125 C 5.8125 -7.21875 5.96875 -6.859375 5.96875 -6.375 C 5.96875 -5.90625 5.8125 -5.53125 5.5 -5.296875 C 5.203125 -5.0625 4.84375 -4.984375 4.21875 -4.984375 L 2.0625 -4.984375 Z M 2.0625 -0.984375 L 2.0625 -4 L 4.78125 -4 C 5.328125 -4 5.6875 -3.859375 5.953125 -3.578125 C 6.21875 -3.296875 6.359375 -2.921875 6.359375 -2.484375 C 6.359375 -2.0625 6.21875 -1.6875 5.953125 -1.40625 C 5.6875 -1.109375 5.328125 -0.984375 4.78125 -0.984375 L 2.0625 -0.984375 Z M 2.0625 -0.984375 "/>
</symbol>
<symbol overflow="visible" id="glyph0-3">
<path style="stroke:none;" d="M 7.9375 -6.03125 C 7.59375 -7.953125 6.484375 -8.890625 4.578125 -8.890625 C 3.390625 -8.890625 2.453125 -8.515625 1.796875 -7.796875 C 1.015625 -6.9375 0.578125 -5.6875 0.578125 -4.265625 C 0.578125 -2.828125 1.015625 -1.59375 1.84375 -0.75 C 2.515625 -0.046875 3.390625 0.28125 4.53125 0.28125 C 6.65625 0.28125 7.859375 -0.875 8.125 -3.1875 L 6.96875 -3.1875 C 6.875 -2.59375 6.75 -2.1875 6.578125 -1.84375 C 6.21875 -1.109375 5.46875 -0.703125 4.53125 -0.703125 C 2.796875 -0.703125 1.6875 -2.09375 1.6875 -4.28125 C 1.6875 -6.53125 2.75 -7.90625 4.4375 -7.90625 C 5.140625 -7.90625 5.8125 -7.6875 6.171875 -7.359375 C 6.484375 -7.0625 6.671875 -6.6875 6.796875 -6.03125 L 7.9375 -6.03125 Z M 7.9375 -6.03125 "/>
</symbol>
<symbol overflow="visible" id="glyph0-4">
<path style="stroke:none;" d="M 1.0625 0 L 4.4375 0 C 6.640625 0 8 -1.65625 8 -4.375 C 8 -7.09375 6.65625 -8.75 4.4375 -8.75 L 1.0625 -8.75 L 1.0625 0 Z M 2.1875 -0.984375 L 2.1875 -7.765625 L 4.25 -7.765625 C 5.96875 -7.765625 6.890625 -6.59375 6.890625 -4.375 C 6.890625 -2.15625 5.96875 -0.984375 4.25 -0.984375 L 2.1875 -0.984375 Z M 2.1875 -0.984375 "/>
</symbol>
<symbol overflow="visible" id="glyph0-5">
<path style="stroke:none;" d="M 2.203125 -3.984375 L 6.953125 -3.984375 L 6.953125 -4.96875 L 2.203125 -4.96875 L 2.203125 -7.765625 L 7.140625 -7.765625 L 7.140625 -8.75 L 1.078125 -8.75 L 1.078125 0 L 7.359375 0 L 7.359375 -0.984375 L 2.203125 -0.984375 L 2.203125 -3.984375 Z M 2.203125 -3.984375 "/>
</symbol>
<symbol overflow="visible" id="glyph0-6">
<path style="stroke:none;" d="M 2.203125 -3.984375 L 6.375 -3.984375 L 6.375 -4.96875 L 2.203125 -4.96875 L 2.203125 -7.765625 L 6.953125 -7.765625 L 6.953125 -8.75 L 1.078125 -8.75 L 1.078125 0 L 2.203125 0 L 2.203125 -3.984375 Z M 2.203125 -3.984375 "/>
</symbol>
<symbol overflow="visible" id="glyph0-7">
<path style="stroke:none;" d="M 8.515625 -4.625 L 4.859375 -4.625 L 4.859375 -3.640625 L 7.53125 -3.640625 L 7.53125 -3.390625 C 7.53125 -1.84375 6.375 -0.703125 4.78125 -0.703125 C 3.890625 -0.703125 3.078125 -1.03125 2.5625 -1.59375 C 1.984375 -2.21875 1.640625 -3.265625 1.640625 -4.34375 C 1.640625 -6.484375 2.875 -7.90625 4.71875 -7.90625 C 6.046875 -7.90625 7.015625 -7.21875 7.25 -6.09375 L 8.390625 -6.09375 C 8.078125 -7.875 6.734375 -8.890625 4.734375 -8.890625 C 3.65625 -8.890625 2.796875 -8.609375 2.109375 -8.046875 C 1.109375 -7.21875 0.53125 -5.859375 0.53125 -4.28125 C 0.53125 -1.59375 2.171875 0.28125 4.53125 0.28125 C 5.71875 0.28125 6.671875 -0.171875 7.53125 -1.109375 L 7.796875 0.046875 L 8.515625 0.046875 L 8.515625 -4.625 Z M 8.515625 -4.625 "/>
</symbol>
<symbol overflow="visible" id="glyph0-8">
<path style="stroke:none;" d="M 6.609375 -3.984375 L 6.609375 0 L 7.734375 0 L 7.734375 -8.75 L 6.609375 -8.75 L 6.609375 -4.96875 L 2.109375 -4.96875 L 2.109375 -8.75 L 1 -8.75 L 1 0 L 2.125 0 L 2.125 -3.984375 L 6.609375 -3.984375 Z M 6.609375 -3.984375 "/>
</symbol>
<symbol overflow="visible" id="glyph0-9">
<path style="stroke:none;" d="M 2.328125 -8.75 L 1.203125 -8.75 L 1.203125 0 L 2.328125 0 L 2.328125 -8.75 Z M 2.328125 -8.75 "/>
</symbol>
<symbol overflow="visible" id="glyph0-10">
<path style="stroke:none;" d="M 4 -8.75 L 4 -2.59375 C 4 -1.890625 3.921875 -1.5 3.71875 -1.203125 C 3.5 -0.859375 3.09375 -0.65625 2.65625 -0.65625 C 1.8125 -0.65625 1.34375 -1.21875 1.34375 -2.25 L 1.34375 -2.8125 L 0.203125 -2.8125 L 0.203125 -2.046875 C 0.203125 -0.625 1.140625 0.28125 2.640625 0.28125 C 4.15625 0.28125 5.109375 -0.671875 5.109375 -2.1875 L 5.109375 -8.75 L 4 -8.75 Z M 4 -8.75 "/>
</symbol>
<symbol overflow="visible" id="glyph0-11">
<path style="stroke:none;" d="M 4.671875 -8.890625 C 2.15625 -8.890625 0.453125 -7.046875 0.453125 -4.3125 C 0.453125 -1.578125 2.15625 0.28125 4.6875 0.28125 C 5.734375 0.28125 6.6875 -0.046875 7.390625 -0.640625 C 8.34375 -1.453125 8.90625 -2.8125 8.90625 -4.234375 C 8.90625 -7.0625 7.234375 -8.890625 4.671875 -8.890625 Z M 4.671875 -7.90625 C 6.5625 -7.90625 7.78125 -6.46875 7.78125 -4.265625 C 7.78125 -2.140625 6.53125 -0.703125 4.6875 -0.703125 C 2.8125 -0.703125 1.578125 -2.140625 1.578125 -4.3125 C 1.578125 -6.46875 2.8125 -7.90625 4.671875 -7.90625 Z M 4.671875 -7.90625 "/>
</symbol>
<symbol overflow="visible" id="glyph0-12">
<path style="stroke:none;" d="M 0.828125 -6.28125 L 0.828125 0 L 1.84375 0 L 1.84375 -3.265625 C 1.84375 -4.15625 2.0625 -4.75 2.546875 -5.09375 C 2.859375 -5.328125 3.15625 -5.40625 3.859375 -5.40625 L 3.859375 -6.4375 C 3.6875 -6.453125 3.59375 -6.46875 3.46875 -6.46875 C 2.8125 -6.46875 2.328125 -6.078125 1.75 -5.140625 L 1.75 -6.28125 L 0.828125 -6.28125 Z M 0.828125 -6.28125 "/>
</symbol>
<symbol overflow="visible" id="glyph0-13">
<path style="stroke:none;" d="M 4.25 -7.765625 L 7.109375 -7.765625 L 7.109375 -8.75 L 0.25 -8.75 L 0.25 -7.765625 L 3.125 -7.765625 L 3.125 0 L 4.25 0 L 4.25 -7.765625 Z M 4.25 -7.765625 "/>
</symbol>
<symbol overflow="visible" id="glyph1-0">
<path style="stroke:none;" d=""/>
</symbol>
<symbol overflow="visible" id="glyph1-1">
<path style="stroke:none;" d="M 7.296875 -4.765625 L 7.296875 0 L 9.46875 0 L 9.46875 -10.5 L 7.296875 -10.5 L 7.296875 -6.5625 L 3.140625 -6.5625 L 3.140625 -10.5 L 0.984375 -10.5 L 0.984375 0 L 3.140625 0 L 3.140625 -4.765625 L 7.296875 -4.765625 Z M 7.296875 -4.765625 "/>
</symbol>
<symbol overflow="visible" id="glyph1-2">
<path style="stroke:none;" d="M 3.25 -3.75 L 5.953125 -3.75 C 7.875 -3.75 9.125 -5.109375 9.125 -7.25 C 9.125 -9.34375 7.921875 -10.5 5.734375 -10.5 L 1.09375 -10.5 L 1.09375 0 L 3.25 0 L 3.25 -3.75 Z M 3.25 -5.546875 L 3.25 -8.703125 L 5.265625 -8.703125 C 6.421875 -8.703125 6.953125 -8.203125 6.953125 -7.109375 C 6.953125 -6.046875 6.421875 -5.546875 5.265625 -5.546875 L 3.25 -5.546875 Z M 3.25 -5.546875 "/>
</symbol>
<symbol overflow="visible" id="glyph1-3">
<path style="stroke:none;" d="M 9.828125 -6.9375 C 9.75 -7.84375 9.5625 -8.421875 9.125 -9.015625 C 8.3125 -10.078125 7.015625 -10.671875 5.453125 -10.671875 C 2.484375 -10.671875 0.640625 -8.5625 0.640625 -5.15625 C 0.640625 -1.78125 2.46875 0.328125 5.390625 0.328125 C 8 0.328125 9.734375 -1.1875 9.875 -3.59375 L 7.765625 -3.59375 C 7.640625 -2.25 6.78125 -1.484375 5.453125 -1.484375 C 3.78125 -1.484375 2.796875 -2.84375 2.796875 -5.125 C 2.796875 -7.453125 3.8125 -8.828125 5.515625 -8.828125 C 6.265625 -8.828125 6.890625 -8.578125 7.296875 -8.0625 C 7.515625 -7.78125 7.640625 -7.5 7.765625 -6.9375 L 9.828125 -6.9375 Z M 9.828125 -6.9375 "/>
</symbol>
<symbol overflow="visible" id="glyph1-4">
<path style="stroke:none;" d=""/>
</symbol>
<symbol overflow="visible" id="glyph1-5">
<path style="stroke:none;" d="M 2.859375 -7.78125 L 0.828125 -7.78125 L 0.828125 3.140625 L 2.859375 3.140625 L 2.859375 -0.921875 C 3.34375 -0.0625 4.03125 0.34375 5.015625 0.34375 C 6.890625 0.34375 8.265625 -1.40625 8.265625 -3.78125 C 8.265625 -4.875 7.953125 -5.96875 7.4375 -6.6875 C 6.921875 -7.421875 5.953125 -7.90625 5.015625 -7.90625 C 4.03125 -7.90625 3.34375 -7.484375 2.859375 -6.625 L 2.859375 -7.78125 Z M 4.546875 -6.21875 C 5.578125 -6.21875 6.25 -5.234375 6.25 -3.75 C 6.25 -2.328125 5.546875 -1.34375 4.546875 -1.34375 C 3.546875 -1.34375 2.859375 -2.3125 2.859375 -3.78125 C 2.859375 -5.234375 3.546875 -6.21875 4.546875 -6.21875 Z M 4.546875 -6.21875 "/>
</symbol>
<symbol overflow="visible" id="glyph1-6">
<path style="stroke:none;" d="M 7.546875 -3.25 C 7.5625 -3.421875 7.5625 -3.5 7.5625 -3.59375 C 7.5625 -4.375 7.453125 -5.09375 7.265625 -5.640625 C 6.734375 -7.0625 5.484375 -7.90625 3.921875 -7.90625 C 1.6875 -7.90625 0.3125 -6.296875 0.3125 -3.6875 C 0.3125 -1.203125 1.671875 0.328125 3.875 0.328125 C 5.625 0.328125 7.03125 -0.65625 7.484375 -2.1875 L 5.484375 -2.1875 C 5.25 -1.5625 4.6875 -1.203125 3.953125 -1.203125 C 3.375 -1.203125 2.90625 -1.453125 2.625 -1.890625 C 2.4375 -2.171875 2.359375 -2.515625 2.328125 -3.25 L 7.546875 -3.25 Z M 2.359375 -4.59375 C 2.5 -5.78125 3 -6.375 3.890625 -6.375 C 4.390625 -6.375 4.859375 -6.125 5.140625 -5.71875 C 5.328125 -5.4375 5.421875 -5.125 5.453125 -4.59375 L 2.359375 -4.59375 Z M 2.359375 -4.59375 "/>
</symbol>
<symbol overflow="visible" id="glyph1-7">
<path style="stroke:none;" d="M 0.90625 -7.78125 L 0.90625 0 L 2.921875 0 L 2.921875 -4.140625 C 2.921875 -5.3125 3.515625 -5.90625 4.703125 -5.90625 C 4.90625 -5.90625 5.0625 -5.890625 5.328125 -5.84375 L 5.328125 -7.890625 C 5.21875 -7.90625 5.140625 -7.90625 5.078125 -7.90625 C 4.15625 -7.90625 3.359375 -7.296875 2.921875 -6.25 L 2.921875 -7.78125 L 0.90625 -7.78125 Z M 0.90625 -7.78125 "/>
</symbol>
<symbol overflow="visible" id="glyph1-8">
<path style="stroke:none;" d="M 4.515625 -7.625 L 3.3125 -7.625 L 3.3125 -8.390625 C 3.3125 -8.78125 3.484375 -8.984375 3.859375 -8.984375 C 4.03125 -8.984375 4.265625 -8.96875 4.4375 -8.953125 L 4.4375 -10.453125 C 4.0625 -10.484375 3.5625 -10.5 3.28125 -10.5 C 1.9375 -10.5 1.296875 -9.875 1.296875 -8.5625 L 1.296875 -7.625 L 0.203125 -7.625 L 0.203125 -6.28125 L 1.296875 -6.28125 L 1.296875 0 L 3.3125 0 L 3.3125 -6.28125 L 4.515625 -6.28125 L 4.515625 -7.625 Z M 4.515625 -7.625 "/>
</symbol>
<symbol overflow="visible" id="glyph1-9">
<path style="stroke:none;" d="M 4.34375 -7.90625 C 1.953125 -7.90625 0.5 -6.34375 0.5 -3.78125 C 0.5 -1.21875 1.953125 0.328125 4.34375 0.328125 C 6.71875 0.328125 8.203125 -1.234375 8.203125 -3.734375 C 8.203125 -6.375 6.765625 -7.90625 4.34375 -7.90625 Z M 4.34375 -6.28125 C 5.453125 -6.28125 6.1875 -5.28125 6.1875 -3.765625 C 6.1875 -2.3125 5.4375 -1.296875 4.34375 -1.296875 C 3.25 -1.296875 2.515625 -2.3125 2.515625 -3.78125 C 2.515625 -5.265625 3.25 -6.28125 4.34375 -6.28125 Z M 4.34375 -6.28125 "/>
</symbol>
<symbol overflow="visible" id="glyph1-10">
<path style="stroke:none;" d="M 0.859375 -7.78125 L 0.859375 0 L 2.875 0 L 2.875 -4.671875 C 2.875 -5.625 3.40625 -6.1875 4.265625 -6.1875 C 4.9375 -6.1875 5.359375 -5.8125 5.359375 -5.1875 L 5.359375 0 L 7.375 0 L 7.375 -4.671875 C 7.375 -5.625 7.890625 -6.1875 8.765625 -6.1875 C 9.4375 -6.1875 9.859375 -5.8125 9.859375 -5.1875 L 9.859375 0 L 11.875 0 L 11.875 -5.5 C 11.875 -7.015625 10.953125 -7.90625 9.390625 -7.90625 C 8.40625 -7.90625 7.71875 -7.5625 7.109375 -6.75 C 6.734375 -7.484375 5.96875 -7.90625 5 -7.90625 C 4.109375 -7.90625 3.53125 -7.609375 2.859375 -6.8125 L 2.859375 -7.78125 L 0.859375 -7.78125 Z M 0.859375 -7.78125 "/>
</symbol>
<symbol overflow="visible" id="glyph1-11">
<path style="stroke:none;" d="M 7.546875 -0.25 C 7.1875 -0.578125 7.09375 -0.796875 7.09375 -1.203125 L 7.09375 -5.515625 C 7.09375 -7.109375 6 -7.90625 3.90625 -7.90625 C 1.796875 -7.90625 0.703125 -7.015625 0.578125 -5.21875 L 2.515625 -5.21875 C 2.625 -6.015625 2.953125 -6.28125 3.953125 -6.28125 C 4.71875 -6.28125 5.109375 -6.015625 5.109375 -5.5 C 5.109375 -5.25 4.984375 -5.015625 4.765625 -4.890625 C 4.5 -4.75 4.5 -4.75 3.5 -4.59375 L 2.6875 -4.453125 C 1.15625 -4.1875 0.40625 -3.40625 0.40625 -2 C 0.40625 -1.34375 0.59375 -0.796875 0.953125 -0.40625 C 1.390625 0.0625 2.078125 0.328125 2.765625 0.328125 C 3.625 0.328125 4.421875 -0.046875 5.125 -0.78125 C 5.125 -0.375 5.171875 -0.234375 5.359375 0 L 7.546875 0 L 7.546875 -0.25 Z M 5.109375 -3.125 C 5.109375 -1.953125 4.53125 -1.296875 3.515625 -1.296875 C 2.84375 -1.296875 2.421875 -1.65625 2.421875 -2.234375 C 2.421875 -2.84375 2.734375 -3.125 3.578125 -3.296875 L 4.265625 -3.421875 C 4.796875 -3.53125 4.890625 -3.5625 5.109375 -3.671875 L 5.109375 -3.125 Z M 5.109375 -3.125 "/>
</symbol>
<symbol overflow="visible" id="glyph1-12">
<path style="stroke:none;" d="M 0.90625 -7.78125 L 0.90625 0 L 2.921875 0 L 2.921875 -4.671875 C 2.921875 -5.59375 3.578125 -6.1875 4.546875 -6.1875 C 5.421875 -6.1875 5.84375 -5.71875 5.84375 -4.796875 L 5.84375 0 L 7.859375 0 L 7.859375 -5.21875 C 7.859375 -6.921875 6.921875 -7.90625 5.265625 -7.90625 C 4.203125 -7.90625 3.5 -7.515625 2.921875 -6.65625 L 2.921875 -7.78125 L 0.90625 -7.78125 Z M 0.90625 -7.78125 "/>
</symbol>
<symbol overflow="visible" id="glyph1-13">
<path style="stroke:none;" d="M 7.515625 -4.875 C 7.375 -6.765625 6.109375 -7.90625 4.15625 -7.90625 C 1.84375 -7.90625 0.484375 -6.375 0.484375 -3.734375 C 0.484375 -1.171875 1.828125 0.328125 4.140625 0.328125 C 6.015625 0.328125 7.328125 -0.828125 7.515625 -2.6875 L 5.59375 -2.6875 C 5.328125 -1.6875 4.921875 -1.296875 4.15625 -1.296875 C 3.125 -1.296875 2.5 -2.21875 2.5 -3.734375 C 2.5 -4.46875 2.65625 -5.15625 2.890625 -5.625 C 3.125 -6.046875 3.578125 -6.28125 4.15625 -6.28125 C 4.96875 -6.28125 5.359375 -5.890625 5.59375 -4.875 L 7.515625 -4.875 Z M 7.515625 -4.875 "/>
</symbol>
<symbol overflow="visible" id="glyph1-14">
<path style="stroke:none;" d="M 8.828125 0 L 11.03125 -7.78125 L 8.953125 -7.78125 L 7.765625 -2.328125 L 6.59375 -7.78125 L 4.578125 -7.78125 L 3.40625 -2.328125 L 2.15625 -7.78125 L 0.078125 -7.78125 L 2.265625 0 L 4.34375 0 L 5.578125 -5.484375 L 6.734375 0 L 8.828125 0 Z M 8.828125 0 "/>
</symbol>
<symbol overflow="visible" id="glyph1-15">
<path style="stroke:none;" d="M 2.984375 -7.78125 L 0.96875 -7.78125 L 0.96875 0 L 2.984375 0 L 2.984375 -7.78125 Z M 2.984375 -10.5 L 0.96875 -10.5 L 0.96875 -8.703125 L 2.984375 -8.703125 L 2.984375 -10.5 Z M 2.984375 -10.5 "/>
</symbol>
<symbol overflow="visible" id="glyph1-16">
<path style="stroke:none;" d="M 4.34375 -7.625 L 3.21875 -7.625 L 3.21875 -9.703125 L 1.203125 -9.703125 L 1.203125 -7.625 L 0.203125 -7.625 L 0.203125 -6.28125 L 1.203125 -6.28125 L 1.203125 -1.5 C 1.203125 -0.28125 1.84375 0.328125 3.171875 0.328125 C 3.609375 0.328125 3.96875 0.28125 4.34375 0.171875 L 4.34375 -1.234375 C 4.140625 -1.203125 4.015625 -1.203125 3.875 -1.203125 C 3.34375 -1.203125 3.21875 -1.359375 3.21875 -2.046875 L 3.21875 -6.28125 L 4.34375 -6.28125 L 4.34375 -7.625 Z M 4.34375 -7.625 "/>
</symbol>
<symbol overflow="visible" id="glyph1-17">
<path style="stroke:none;" d="M 0.96875 -10.5 L 0.96875 0 L 2.984375 0 L 2.984375 -4.671875 C 2.984375 -5.5625 3.625 -6.1875 4.53125 -6.1875 C 4.96875 -6.1875 5.3125 -6.03125 5.546875 -5.71875 C 5.71875 -5.453125 5.78125 -5.265625 5.78125 -4.75 L 5.78125 0 L 7.796875 0 L 7.796875 -5.21875 C 7.796875 -6.1875 7.53125 -6.875 7 -7.3125 C 6.5625 -7.6875 5.90625 -7.90625 5.265625 -7.90625 C 4.265625 -7.90625 3.546875 -7.5 2.984375 -6.65625 L 2.984375 -10.5 L 0.96875 -10.5 Z M 0.96875 -10.5 "/>
</symbol>
<symbol overflow="visible" id="glyph1-18">
<path style="stroke:none;" d="M 5.828125 0 L 7.84375 0 L 7.84375 -10.5 L 5.828125 -10.5 L 5.828125 -6.765625 C 5.328125 -7.546875 4.65625 -7.90625 3.6875 -7.90625 C 1.828125 -7.90625 0.421875 -6.125 0.421875 -3.78125 C 0.421875 -2.71875 0.734375 -1.65625 1.25 -0.90625 C 1.78125 -0.15625 2.734375 0.328125 3.6875 0.328125 C 4.65625 0.328125 5.328125 -0.03125 5.828125 -0.796875 L 5.828125 0 Z M 4.140625 -6.21875 C 5.15625 -6.21875 5.828125 -5.234375 5.828125 -3.75 C 5.828125 -2.328125 5.140625 -1.359375 4.140625 -1.359375 C 3.125 -1.359375 2.4375 -2.34375 2.4375 -3.78125 C 2.4375 -5.21875 3.125 -6.21875 4.140625 -6.21875 Z M 4.140625 -6.21875 "/>
</symbol>
<symbol overflow="visible" id="glyph1-19">
<path style="stroke:none;" d="M 7.28125 -5.265625 C 7.25 -6.921875 5.984375 -7.90625 3.890625 -7.90625 C 1.921875 -7.90625 0.6875 -6.921875 0.6875 -5.3125 C 0.6875 -4.796875 0.84375 -4.34375 1.125 -4.046875 C 1.390625 -3.78125 1.640625 -3.640625 2.390625 -3.40625 L 4.796875 -2.65625 C 5.296875 -2.5 5.46875 -2.328125 5.46875 -2.015625 C 5.46875 -1.546875 4.90625 -1.25 3.96875 -1.25 C 3.453125 -1.25 3.046875 -1.359375 2.78125 -1.53125 C 2.5625 -1.6875 2.484375 -1.84375 2.390625 -2.265625 L 0.421875 -2.265625 C 0.46875 -0.5625 1.734375 0.328125 4.09375 0.328125 C 5.171875 0.328125 6 0.09375 6.5625 -0.359375 C 7.140625 -0.828125 7.484375 -1.546875 7.484375 -2.3125 C 7.484375 -3.3125 6.984375 -3.96875 5.96875 -4.265625 L 3.421875 -5 C 2.859375 -5.171875 2.703125 -5.28125 2.703125 -5.609375 C 2.703125 -6.03125 3.171875 -6.328125 3.875 -6.328125 C 4.84375 -6.328125 5.3125 -5.984375 5.328125 -5.265625 L 7.28125 -5.265625 Z M 7.28125 -5.265625 "/>
</symbol>
<symbol overflow="visible" id="glyph2-0">
<path style="stroke:none;" d=""/>
</symbol>
<symbol overflow="visible" id="glyph2-1">
<path style="stroke:none;" d="M -4.53125 -5.25 C -5.765625 -5.25 -6.46875 -4.421875 -6.46875 -2.96875 C -6.46875 -1.515625 -5.71875 -0.5625 -4.546875 -0.5625 C -3.5625 -0.5625 -3.09375 -1.0625 -2.734375 -2.5625 L -2.515625 -3.484375 C -2.34375 -4.1875 -2.09375 -4.46875 -1.625 -4.46875 C -1.046875 -4.46875 -0.640625 -3.875 -0.640625 -3 C -0.640625 -2.453125 -0.796875 -2 -1.0625 -1.75 C -1.25 -1.59375 -1.421875 -1.53125 -1.875 -1.46875 L -1.875 -0.40625 C -0.421875 -0.453125 0.28125 -1.265625 0.28125 -2.921875 C 0.28125 -4.5 -0.5 -5.515625 -1.71875 -5.515625 C -2.65625 -5.515625 -3.171875 -4.984375 -3.46875 -3.734375 L -3.703125 -2.765625 C -3.890625 -1.953125 -4.15625 -1.609375 -4.59375 -1.609375 C -5.171875 -1.609375 -5.546875 -2.125 -5.546875 -2.9375 C -5.546875 -3.75 -5.203125 -4.171875 -4.53125 -4.203125 L -4.53125 -5.25 Z M -4.53125 -5.25 "/>
</symbol>
<symbol overflow="visible" id="glyph2-2">
<path style="stroke:none;" d="M -2.8125 -6.15625 C -3.765625 -6.15625 -4.34375 -6.078125 -4.8125 -5.90625 C -5.84375 -5.5 -6.46875 -4.53125 -6.46875 -3.359375 C -6.46875 -1.609375 -5.125 -0.484375 -3.0625 -0.484375 C -1 -0.484375 0.28125 -1.578125 0.28125 -3.34375 C 0.28125 -4.78125 -0.546875 -5.765625 -1.90625 -6.03125 L -1.90625 -5.015625 C -1.078125 -4.734375 -0.640625 -4.171875 -0.640625 -3.375 C -0.640625 -2.734375 -0.9375 -2.203125 -1.46875 -1.859375 C -1.828125 -1.625 -2.1875 -1.53125 -2.8125 -1.53125 L -2.8125 -6.15625 Z M -3.625 -1.546875 C -4.78125 -1.625 -5.546875 -2.34375 -5.546875 -3.34375 C -5.546875 -4.328125 -4.734375 -5.09375 -3.703125 -5.09375 C -3.671875 -5.09375 -3.640625 -5.09375 -3.625 -5.078125 L -3.625 -1.546875 Z M -3.625 -1.546875 "/>
</symbol>
<symbol overflow="visible" id="glyph2-3">
<path style="stroke:none;" d="M -4.171875 -5.65625 C -4.78125 -5.609375 -5.1875 -5.46875 -5.53125 -5.234375 C -6.125 -4.796875 -6.46875 -4.046875 -6.46875 -3.171875 C -6.46875 -1.46875 -5.125 -0.375 -3.03125 -0.375 C -1.015625 -0.375 0.28125 -1.453125 0.28125 -3.15625 C 0.28125 -4.65625 -0.625 -5.609375 -2.15625 -5.71875 L -2.15625 -4.71875 C -1.15625 -4.546875 -0.640625 -4.03125 -0.640625 -3.1875 C -0.640625 -2.078125 -1.546875 -1.421875 -3.03125 -1.421875 C -4.609375 -1.421875 -5.546875 -2.0625 -5.546875 -3.15625 C -5.546875 -4 -5.046875 -4.53125 -4.171875 -4.640625 L -4.171875 -5.65625 Z M -4.171875 -5.65625 "/>
</symbol>
<symbol overflow="visible" id="glyph2-4">
<path style="stroke:none;" d="M -6.46875 -3.265625 C -6.46875 -1.5 -5.203125 -0.4375 -3.09375 -0.4375 C -0.984375 -0.4375 0.28125 -1.484375 0.28125 -3.28125 C 0.28125 -5.046875 -0.984375 -6.125 -3.046875 -6.125 C -5.21875 -6.125 -6.46875 -5.078125 -6.46875 -3.265625 Z M -5.546875 -3.28125 C -5.546875 -4.40625 -4.625 -5.078125 -3.0625 -5.078125 C -1.578125 -5.078125 -0.640625 -4.375 -0.640625 -3.28125 C -0.640625 -2.15625 -1.578125 -1.46875 -3.09375 -1.46875 C -4.609375 -1.46875 -5.546875 -2.15625 -5.546875 -3.28125 Z M -5.546875 -3.28125 "/>
</symbol>
<symbol overflow="visible" id="glyph2-5">
<path style="stroke:none;" d="M -6.28125 -0.84375 L 0 -0.84375 L 0 -1.84375 L -3.46875 -1.84375 C -4.75 -1.84375 -5.59375 -2.515625 -5.59375 -3.546875 C -5.59375 -4.34375 -5.109375 -4.84375 -4.359375 -4.84375 L 0 -4.84375 L 0 -5.84375 L -4.75 -5.84375 C -5.796875 -5.84375 -6.46875 -5.0625 -6.46875 -3.859375 C -6.46875 -2.921875 -6.109375 -2.3125 -5.234375 -1.765625 L -6.28125 -1.765625 L -6.28125 -0.84375 Z M -6.28125 -0.84375 "/>
</symbol>
<symbol overflow="visible" id="glyph2-6">
<path style="stroke:none;" d="M -8.75 -5.9375 L -8.75 -4.9375 L -5.5 -4.9375 C -6.125 -4.53125 -6.46875 -3.859375 -6.46875 -3.015625 C -6.46875 -1.375 -5.15625 -0.3125 -3.15625 -0.3125 C -1.03125 -0.3125 0.28125 -1.359375 0.28125 -3.046875 C 0.28125 -3.90625 -0.046875 -4.515625 -0.828125 -5.046875 L 0 -5.046875 L 0 -5.9375 L -8.75 -5.9375 Z M -5.53125 -3.1875 C -5.53125 -4.265625 -4.578125 -4.9375 -3.078125 -4.9375 C -1.625 -4.9375 -0.65625 -4.25 -0.65625 -3.1875 C -0.65625 -2.09375 -1.625 -1.359375 -3.09375 -1.359375 C -4.5625 -1.359375 -5.53125 -2.09375 -5.53125 -3.1875 Z M -5.53125 -3.1875 "/>
</symbol>
<symbol overflow="visible" id="glyph2-7">
<path style="stroke:none;" d="M -8.515625 -3.296875 C -8.515625 -2.515625 -8.15625 -1.78125 -7.578125 -1.34375 C -6.828125 -0.796875 -5.6875 -0.515625 -4.109375 -0.515625 C -1.25 -0.515625 0.28125 -1.46875 0.28125 -3.296875 C 0.28125 -5.09375 -1.25 -6.078125 -4.046875 -6.078125 C -5.703125 -6.078125 -6.796875 -5.8125 -7.578125 -5.25 C -8.171875 -4.8125 -8.515625 -4.109375 -8.515625 -3.296875 Z M -7.578125 -3.296875 C -7.578125 -4.4375 -6.421875 -5 -4.140625 -5 C -1.734375 -5 -0.59375 -4.453125 -0.59375 -3.28125 C -0.59375 -2.15625 -1.78125 -1.59375 -4.109375 -1.59375 C -6.4375 -1.59375 -7.578125 -2.15625 -7.578125 -3.296875 Z M -7.578125 -3.296875 "/>
</symbol>
<symbol overflow="visible" id="glyph2-8">
<path style="stroke:none;" d="M -6.0625 -3.109375 L 0 -3.109375 L 0 -4.15625 L -8.515625 -4.15625 L -8.515625 -3.46875 C -7.203125 -3.09375 -7.015625 -2.859375 -6.8125 -1.21875 L -6.0625 -1.21875 L -6.0625 -3.109375 Z M -6.0625 -3.109375 "/>
</symbol>
<symbol overflow="visible" id="glyph2-9">
<path style="stroke:none;" d="M -1.046875 -6.078125 L -1.046875 -1.59375 C -1.734375 -1.703125 -2.1875 -2.09375 -2.796875 -3.125 L -3.4375 -4.328125 C -4.09375 -5.515625 -4.96875 -6.125 -6.015625 -6.125 C -6.71875 -6.125 -7.375 -5.84375 -7.84375 -5.34375 C -8.296875 -4.84375 -8.515625 -4.21875 -8.515625 -3.40625 C -8.515625 -2.328125 -8.125 -1.53125 -7.40625 -1.0625 C -6.953125 -0.75 -6.421875 -0.625 -5.5625 -0.59375 L -5.5625 -1.65625 C -6.125 -1.6875 -6.484375 -1.765625 -6.75 -1.90625 C -7.265625 -2.1875 -7.578125 -2.734375 -7.578125 -3.375 C -7.578125 -4.328125 -6.90625 -5.046875 -5.984375 -5.046875 C -5.3125 -5.046875 -4.734375 -4.65625 -4.3125 -3.90625 L -3.6875 -2.796875 C -2.671875 -1.015625 -1.875 -0.5 0 -0.40625 L 0 -6.078125 L -1.046875 -6.078125 Z M -1.046875 -6.078125 "/>
</symbol>
<symbol overflow="visible" id="glyph2-10">
<path style="stroke:none;" d="M -3.90625 -2.65625 L -3.90625 -2.78125 L -3.90625 -3.234375 C -3.90625 -4.390625 -3.390625 -4.984375 -2.359375 -4.984375 C -1.296875 -4.984375 -0.65625 -4.328125 -0.65625 -3.234375 C -0.65625 -2.078125 -1.234375 -1.515625 -2.46875 -1.4375 L -2.46875 -0.390625 C -1.78125 -0.4375 -1.34375 -0.546875 -0.953125 -0.75 C -0.140625 -1.1875 0.28125 -2.03125 0.28125 -3.1875 C 0.28125 -4.9375 -0.765625 -6.078125 -2.375 -6.078125 C -3.453125 -6.078125 -4.0625 -5.65625 -4.40625 -4.625 C -4.71875 -5.421875 -5.3125 -5.8125 -6.171875 -5.8125 C -7.625 -5.8125 -8.515625 -4.84375 -8.515625 -3.234375 C -8.515625 -1.515625 -7.578125 -0.59375 -5.765625 -0.5625 L -5.765625 -1.625 C -6.28125 -1.625 -6.5625 -1.6875 -6.828125 -1.8125 C -7.296875 -2.046875 -7.578125 -2.578125 -7.578125 -3.234375 C -7.578125 -4.171875 -7.03125 -4.734375 -6.125 -4.734375 C -5.53125 -4.734375 -5.171875 -4.53125 -4.984375 -4.0625 C -4.859375 -3.765625 -4.8125 -3.390625 -4.796875 -2.65625 L -3.90625 -2.65625 Z M -3.90625 -2.65625 "/>
</symbol>
<symbol overflow="visible" id="glyph2-11">
<path style="stroke:none;" d="M -2.046875 -3.921875 L 0 -3.921875 L 0 -4.984375 L -2.046875 -4.984375 L -2.046875 -6.234375 L -2.984375 -6.234375 L -2.984375 -4.984375 L -8.515625 -4.984375 L -8.515625 -4.203125 L -3.15625 -0.34375 L -2.046875 -0.34375 L -2.046875 -3.921875 Z M -2.984375 -3.921875 L -2.984375 -1.265625 L -6.703125 -3.921875 L -2.984375 -3.921875 Z M -2.984375 -3.921875 "/>
</symbol>
<symbol overflow="visible" id="glyph2-12">
<path style="stroke:none;" d="M -8.515625 -5.71875 L -8.515625 -1.3125 L -3.875 -0.6875 L -3.875 -1.65625 C -4.46875 -2.140625 -4.671875 -2.5625 -4.671875 -3.21875 C -4.671875 -4.359375 -3.890625 -5.078125 -2.625 -5.078125 C -1.40625 -5.078125 -0.65625 -4.375 -0.65625 -3.21875 C -0.65625 -2.296875 -1.125 -1.734375 -2.09375 -1.46875 L -2.09375 -0.421875 C -1.390625 -0.5625 -1.0625 -0.6875 -0.75 -0.9375 C -0.09375 -1.421875 0.28125 -2.28125 0.28125 -3.234375 C 0.28125 -4.953125 -0.96875 -6.15625 -2.765625 -6.15625 C -4.453125 -6.15625 -5.609375 -5.046875 -5.609375 -3.40625 C -5.609375 -2.8125 -5.453125 -2.328125 -5.09375 -1.84375 L -7.46875 -2.171875 L -7.46875 -5.71875 L -8.515625 -5.71875 Z M -8.515625 -5.71875 "/>
</symbol>
<symbol overflow="visible" id="glyph2-13">
<path style="stroke:none;" d="M -6.28125 -5.96875 C -7.6875 -5.765625 -8.515625 -4.859375 -8.515625 -3.5625 C -8.515625 -2.625 -8.046875 -1.78125 -7.296875 -1.28125 C -6.46875 -0.75 -5.421875 -0.515625 -3.875 -0.515625 C -2.453125 -0.515625 -1.53125 -0.734375 -0.78125 -1.234375 C -0.09375 -1.6875 0.28125 -2.4375 0.28125 -3.375 C 0.28125 -4.984375 -0.921875 -6.15625 -2.59375 -6.15625 C -4.171875 -6.15625 -5.296875 -5.078125 -5.296875 -3.546875 C -5.296875 -2.71875 -4.96875 -2.046875 -4.34375 -1.59375 C -6.421875 -1.609375 -7.578125 -2.28125 -7.578125 -3.484375 C -7.578125 -4.234375 -7.109375 -4.75 -6.28125 -4.921875 L -6.28125 -5.96875 Z M -4.359375 -3.421875 C -4.359375 -4.4375 -3.640625 -5.078125 -2.515625 -5.078125 C -1.4375 -5.078125 -0.65625 -4.359375 -0.65625 -3.390625 C -0.65625 -2.40625 -1.46875 -1.65625 -2.5625 -1.65625 C -3.625 -1.65625 -4.359375 -2.375 -4.359375 -3.421875 Z M -4.359375 -3.421875 "/>
</symbol>
<symbol overflow="visible" id="glyph2-14">
<path style="stroke:none;" d="M -8.515625 -6.234375 L -8.515625 -0.546875 L -7.46875 -0.546875 L -7.46875 -5.140625 C -4.578125 -3.125 -2.796875 -2.296875 0 -1.65625 L 0 -2.78125 C -2.71875 -3.25 -5.0625 -4.3125 -7.625 -6.234375 L -8.515625 -6.234375 Z M -8.515625 -6.234375 "/>
</symbol>
</g>
<clipPath id="clip1">
  <path d="M 0 0 L 505 0 L 505 505 L 0 505 Z M 0 0 "/>
</clipPath>
<clipPath id="clip2">
  <path d="M 0 0 L 505 0 L 505 505 L 0 505 Z M 0 0 "/>
</clipPath>
<clipPath id="clip3">
  <path d="M 0 0 L 505 0 L 505 505 L 0 505 Z M 0 0 "/>
</clipPath>
<clipPath id="clip4">
  <path d="M 0 0 L 505 0 L 505 505 L 0 505 Z M 0 0 "/>
</clipPath>
<clipPath id="clip5">
  <path d="M 59.039062 59.039062 L 474.757812 59.039062 L 474.757812 431.558594 L 59.039062 431.558594 Z M 59.039062 59.039062 "/>
</clipPath>
</defs>
<g id="surface0">
<rect x="0" y="0" width="504" height="504" style="fill:rgb(100%,100%,100%);fill-opacity:1;stroke:none;"/>
<g clip-path="url(#clip1)" clip-rule="nonzero">
<path style="fill-rule:nonzero;fill:rgb(0%,0%,54.509804%);fill-opacity:1;stroke-width:0.75;stroke-linecap:round;stroke-linejoin:round;stroke:rgb(0%,0%,0%);stroke-opacity:1;stroke-miterlimit:10;" d="M 74.398438 430.558594 L 82.234375 430.558594 L 82.234375 415.042969 L 74.398438 415.042969 Z M 74.398438 430.558594 "/>
<path style="fill-rule:nonzero;fill:rgb(0%,0%,100%);fill-opacity:1;stroke-width:0.75;stroke-linecap:round;stroke-linejoin:round;stroke:rgb(0%,0%,0%);stroke-opacity:1;stroke-miterlimit:10;" d="M 82.238281 430.558594 L 90.074219 430.558594 L 90.074219 413.335938 L 82.238281 413.335938 Z M 82.238281 430.558594 "/>
<path style="fill-rule:nonzero;fill:rgb(10.980392%,52.54902%,93.333333%);fill-opacity:1;stroke-width:0.75;stroke-linecap:round;stroke-linejoin:round;stroke:rgb(0%,0%,0%);stroke-opacity:1;stroke-miterlimit:10;" d="M 90.074219 430.558594 L 97.910156 430.558594 L 97.910156 399.625 L 90.074219 399.625 Z M 90.074219 430.558594 "/>
<path style="fill-rule:nonzero;fill:rgb(38.823529%,72.156863%,100%);fill-opacity:1;stroke-width:0.75;stroke-linecap:round;stroke-linejoin:round;stroke:rgb(0%,0%,0%);stroke-opacity:1;stroke-miterlimit:10;" d="M 97.910156 430.558594 L 105.746094 430.558594 L 105.746094 397.78125 L 97.910156 397.78125 Z M 97.910156 430.558594 "/>
<path style="fill-rule:nonzero;fill:rgb(0%,0%,54.509804%);fill-opacity:1;stroke-width:0.75;stroke-linecap:round;stroke-linejoin:round;stroke:rgb(0%,0%,0%);stroke-opacity:1;stroke-miterlimit:10;" d="M 113.582031 430.558594 L 121.417969 430.558594 L 121.417969 389.898438 L 113.582031 389.898438 Z M 113.582031 430.558594 "/>
<path style="fill-rule:nonzero;fill:rgb(0%,0%,100%);fill-opacity:1;stroke-width:0.75;stroke-linecap:round;stroke-linejoin:round;stroke:rgb(0%,0%,0%);stroke-opacity:1;stroke-miterlimit:10;" d="M 121.421875 430.558594 L 129.257812 430.558594 L 129.257812 385.519531 L 121.421875 385.519531 Z M 121.421875 430.558594 "/>
<path style="fill-rule:nonzero;fill:rgb(10.980392%,52.54902%,93.333333%);fill-opacity:1;stroke-width:0.75;stroke-linecap:round;stroke-linejoin:round;stroke:rgb(0%,0%,0%);stroke-opacity:1;stroke-miterlimit:10;" d="M 129.257812 430.558594 L 137.09375 430.558594 L 137.09375 351.203125 L 129.257812 351.203125 Z M 129.257812 430.558594 "/>
<path style="fill-rule:nonzero;fill:rgb(38.823529%,72.156863%,100%);fill-opacity:1;stroke-width:0.75;stroke-linecap:round;stroke-linejoin:round;stroke:rgb(0%,0%,0%);stroke-opacity:1;stroke-miterlimit:10;" d="M 137.09375 430.558594 L 144.929688 430.558594 L 144.929688 345.078125 L 137.09375 345.078125 Z M 137.09375 430.558594 "/>
<path style="fill-rule:nonzero;fill:rgb(0%,0%,54.509804%);fill-opacity:1;stroke-width:0.75;stroke-linecap:round;stroke-linejoin:round;stroke:rgb(0%,0%,0%);stroke-opacity:1;stroke-miterlimit:10;" d="M 152.765625 430.558594 L 160.601562 430.558594 L 160.601562 417.832031 L 152.765625 417.832031 Z M 152.765625 430.558594 "/>
<path style="fill-rule:nonzero;fill:rgb(0%,0%,100%);fill-opacity:1;stroke-width:0.75;stroke-linecap:round;stroke-linejoin:round;stroke:rgb(0%,0%,0%);stroke-opacity:1;stroke-miterlimit:10;" d="M 160.605469 430.558594 L 168.441406 430.558594 L 168.441406 417.410156 L 160.605469 417.410156 Z M 160.605469 430.558594 "/>
<path style="fill-rule:nonzero;fill:rgb(10.980392%,52.54902%,93.333333%);fill-opacity:1;stroke-width:0.75;stroke-linecap:round;stroke-linejoin:round;stroke:rgb(0%,0%,0%);stroke-opacity:1;stroke-miterlimit:10;" d="M 168.441406 430.558594 L 176.277344 430.558594 L 176.277344 410.527344 L 168.441406 410.527344 Z M 168.441406 430.558594 "/>
<path style="fill-rule:nonzero;fill:rgb(38.823529%,72.156863%,100%);fill-opacity:1;stroke-width:0.75;stroke-linecap:round;stroke-linejoin:round;stroke:rgb(0%,0%,0%);stroke-opacity:1;stroke-miterlimit:10;" d="M 176.277344 430.558594 L 184.113281 430.558594 L 184.113281 356.320312 L 176.277344 356.320312 Z M 176.277344 430.558594 "/>
<path style="fill-rule:nonzero;fill:rgb(0%,0%,54.509804%);fill-opacity:1;stroke-width:0.75;stroke-linecap:round;stroke-linejoin:round;stroke:rgb(0%,0%,0%);stroke-opacity:1;stroke-miterlimit:10;" d="M 191.949219 430.558594 L 199.785156 430.558594 L 199.785156 417.941406 L 191.949219 417.941406 Z M 191.949219 430.558594 "/>
<path style="fill-rule:nonzero;fill:rgb(0%,0%,100%);fill-opacity:1;stroke-width:0.75;stroke-linecap:round;stroke-linejoin:round;stroke:rgb(0%,0%,0%);stroke-opacity:1;stroke-miterlimit:10;" d="M 199.789062 430.558594 L 207.625 430.558594 L 207.625 417.144531 L 199.789062 417.144531 Z M 199.789062 430.558594 "/>
<path style="fill-rule:nonzero;fill:rgb(10.980392%,52.54902%,93.333333%);fill-opacity:1;stroke-width:0.75;stroke-linecap:round;stroke-linejoin:round;stroke:rgb(0%,0%,0%);stroke-opacity:1;stroke-miterlimit:10;" d="M 207.625 430.558594 L 215.460938 430.558594 L 215.460938 410.746094 L 207.625 410.746094 Z M 207.625 430.558594 "/>
<path style="fill-rule:nonzero;fill:rgb(38.823529%,72.156863%,100%);fill-opacity:1;stroke-width:0.75;stroke-linecap:round;stroke-linejoin:round;stroke:rgb(0%,0%,0%);stroke-opacity:1;stroke-miterlimit:10;" d="M 215.460938 430.558594 L 223.296875 430.558594 L 223.296875 356.96875 L 215.460938 356.96875 Z M 215.460938 430.558594 "/>
<path style="fill-rule:nonzero;fill:rgb(0%,0%,54.509804%);fill-opacity:1;stroke-width:0.75;stroke-linecap:round;stroke-linejoin:round;stroke:rgb(0%,0%,0%);stroke-opacity:1;stroke-miterlimit:10;" d="M 231.132812 430.558594 L 238.96875 430.558594 L 238.96875 410.703125 L 231.132812 410.703125 Z M 231.132812 430.558594 "/>
<path style="fill-rule:nonzero;fill:rgb(0%,0%,100%);fill-opacity:1;stroke-width:0.75;stroke-linecap:round;stroke-linejoin:round;stroke:rgb(0%,0%,0%);stroke-opacity:1;stroke-miterlimit:10;" d="M 238.972656 430.558594 L 246.808594 430.558594 L 246.808594 410.621094 L 238.972656 410.621094 Z M 238.972656 430.558594 "/>
<path style="fill-rule:nonzero;fill:rgb(10.980392%,52.54902%,93.333333%);fill-opacity:1;stroke-width:0.75;stroke-linecap:round;stroke-linejoin:round;stroke:rgb(0%,0%,0%);stroke-opacity:1;stroke-miterlimit:10;" d="M 246.808594 430.558594 L 254.644531 430.558594 L 254.644531 398.832031 L 246.808594 398.832031 Z M 246.808594 430.558594 "/>
<path style="fill-rule:nonzero;fill:rgb(38.823529%,72.156863%,100%);fill-opacity:1;stroke-width:0.75;stroke-linecap:round;stroke-linejoin:round;stroke:rgb(0%,0%,0%);stroke-opacity:1;stroke-miterlimit:10;" d="M 254.644531 430.558594 L 262.480469 430.558594 L 262.480469 373.671875 L 254.644531 373.671875 Z M 254.644531 430.558594 "/>
<path style="fill-rule:nonzero;fill:rgb(0%,0%,54.509804%);fill-opacity:1;stroke-width:0.75;stroke-linecap:round;stroke-linejoin:round;stroke:rgb(0%,0%,0%);stroke-opacity:1;stroke-miterlimit:10;" d="M 270.320312 430.558594 L 278.15625 430.558594 L 278.15625 410.222656 L 270.320312 410.222656 Z M 270.320312 430.558594 "/>
<path style="fill-rule:nonzero;fill:rgb(0%,0%,100%);fill-opacity:1;stroke-width:0.75;stroke-linecap:round;stroke-linejoin:round;stroke:rgb(0%,0%,0%);stroke-opacity:1;stroke-miterlimit:10;" d="M 278.15625 430.558594 L 285.992188 430.558594 L 285.992188 410.691406 L 278.15625 410.691406 Z M 278.15625 430.558594 "/>
<path style="fill-rule:nonzero;fill:rgb(10.980392%,52.54902%,93.333333%);fill-opacity:1;stroke-width:0.75;stroke-linecap:round;stroke-linejoin:round;stroke:rgb(0%,0%,0%);stroke-opacity:1;stroke-miterlimit:10;" d="M 285.992188 430.558594 L 293.828125 430.558594 L 293.828125 398.984375 L 285.992188 398.984375 Z M 285.992188 430.558594 "/>
<path style="fill-rule:nonzero;fill:rgb(38.823529%,72.156863%,100%);fill-opacity:1;stroke-width:0.75;stroke-linecap:round;stroke-linejoin:round;stroke:rgb(0%,0%,0%);stroke-opacity:1;stroke-miterlimit:10;" d="M 293.828125 430.558594 L 301.664062 430.558594 L 301.664062 373.507812 L 293.828125 373.507812 Z M 293.828125 430.558594 "/>
<path style="fill-rule:nonzero;fill:rgb(0%,0%,54.509804%);fill-opacity:1;stroke-width:0.75;stroke-linecap:round;stroke-linejoin:round;stroke:rgb(0%,0%,0%);stroke-opacity:1;stroke-miterlimit:10;" d="M 309.503906 430.558594 L 317.339844 430.558594 L 317.339844 324.941406 L 309.503906 324.941406 Z M 309.503906 430.558594 "/>
<path style="fill-rule:nonzero;fill:rgb(0%,0%,100%);fill-opacity:1;stroke-width:0.75;stroke-linecap:round;stroke-linejoin:round;stroke:rgb(0%,0%,0%);stroke-opacity:1;stroke-miterlimit:10;" d="M 317.339844 430.558594 L 325.175781 430.558594 L 325.175781 336.542969 L 317.339844 336.542969 Z M 317.339844 430.558594 "/>
<path style="fill-rule:nonzero;fill:rgb(10.980392%,52.54902%,93.333333%);fill-opacity:1;stroke-width:0.75;stroke-linecap:round;stroke-linejoin:round;stroke:rgb(0%,0%,0%);stroke-opacity:1;stroke-miterlimit:10;" d="M 325.175781 430.558594 L 333.011719 430.558594 L 333.011719 281.410156 L 325.175781 281.410156 Z M 325.175781 430.558594 "/>
<path style="fill-rule:nonzero;fill:rgb(38.823529%,72.156863%,100%);fill-opacity:1;stroke-width:0.75;stroke-linecap:round;stroke-linejoin:round;stroke:rgb(0%,0%,0%);stroke-opacity:1;stroke-miterlimit:10;" d="M 333.011719 430.558594 L 340.847656 430.558594 L 340.847656 147.640625 L 333.011719 147.640625 Z M 333.011719 430.558594 "/>
<path style="fill-rule:nonzero;fill:rgb(0%,0%,54.509804%);fill-opacity:1;stroke-width:0.75;stroke-linecap:round;stroke-linejoin:round;stroke:rgb(0%,0%,0%);stroke-opacity:1;stroke-miterlimit:10;" d="M 348.6875 430.558594 L 356.523438 430.558594 L 356.523438 334.082031 L 348.6875 334.082031 Z M 348.6875 430.558594 "/>
<path style="fill-rule:nonzero;fill:rgb(0%,0%,100%);fill-opacity:1;stroke-width:0.75;stroke-linecap:round;stroke-linejoin:round;stroke:rgb(0%,0%,0%);stroke-opacity:1;stroke-miterlimit:10;" d="M 356.523438 430.558594 L 364.359375 430.558594 L 364.359375 335.707031 L 356.523438 335.707031 Z M 356.523438 430.558594 "/>
<path style="fill-rule:nonzero;fill:rgb(10.980392%,52.54902%,93.333333%);fill-opacity:1;stroke-width:0.75;stroke-linecap:round;stroke-linejoin:round;stroke:rgb(0%,0%,0%);stroke-opacity:1;stroke-miterlimit:10;" d="M 364.359375 430.558594 L 372.195312 430.558594 L 372.195312 281.425781 L 364.359375 281.425781 Z M 364.359375 430.558594 "/>
<path style="fill-rule:nonzero;fill:rgb(38.823529%,72.156863%,100%);fill-opacity:1;stroke-width:0.75;stroke-linecap:round;stroke-linejoin:round;stroke:rgb(0%,0%,0%);stroke-opacity:1;stroke-miterlimit:10;" d="M 372.195312 430.558594 L 380.03125 430.558594 L 380.03125 146.246094 L 372.195312 146.246094 Z M 372.195312 430.558594 "/>
<path style="fill-rule:nonzero;fill:rgb(0%,0%,54.509804%);fill-opacity:1;stroke-width:0.75;stroke-linecap:round;stroke-linejoin:round;stroke:rgb(0%,0%,0%);stroke-opacity:1;stroke-miterlimit:10;" d="M 387.871094 430.558594 L 395.707031 430.558594 L 395.707031 303.414062 L 387.871094 303.414062 Z M 387.871094 430.558594 "/>
<path style="fill-rule:nonzero;fill:rgb(0%,0%,100%);fill-opacity:1;stroke-width:0.75;stroke-linecap:round;stroke-linejoin:round;stroke:rgb(0%,0%,0%);stroke-opacity:1;stroke-miterlimit:10;" d="M 395.707031 430.558594 L 403.542969 430.558594 L 403.542969 297.355469 L 395.707031 297.355469 Z M 395.707031 430.558594 "/>
<path style="fill-rule:nonzero;fill:rgb(10.980392%,52.54902%,93.333333%);fill-opacity:1;stroke-width:0.75;stroke-linecap:round;stroke-linejoin:round;stroke:rgb(0%,0%,0%);stroke-opacity:1;stroke-miterlimit:10;" d="M 403.542969 430.558594 L 411.378906 430.558594 L 411.378906 217.78125 L 403.542969 217.78125 Z M 403.542969 430.558594 "/>
<path style="fill-rule:nonzero;fill:rgb(38.823529%,72.156863%,100%);fill-opacity:1;stroke-width:0.75;stroke-linecap:round;stroke-linejoin:round;stroke:rgb(0%,0%,0%);stroke-opacity:1;stroke-miterlimit:10;" d="M 411.378906 430.558594 L 419.214844 430.558594 L 419.214844 83.851562 L 411.378906 83.851562 Z M 411.378906 430.558594 "/>
<path style="fill-rule:nonzero;fill:rgb(0%,0%,54.509804%);fill-opacity:1;stroke-width:0.75;stroke-linecap:round;stroke-linejoin:round;stroke:rgb(0%,0%,0%);stroke-opacity:1;stroke-miterlimit:10;" d="M 427.054688 430.558594 L 434.890625 430.558594 L 434.890625 300.25 L 427.054688 300.25 Z M 427.054688 430.558594 "/>
<path style="fill-rule:nonzero;fill:rgb(0%,0%,100%);fill-opacity:1;stroke-width:0.75;stroke-linecap:round;stroke-linejoin:round;stroke:rgb(0%,0%,0%);stroke-opacity:1;stroke-miterlimit:10;" d="M 434.890625 430.558594 L 442.726562 430.558594 L 442.726562 297.480469 L 434.890625 297.480469 Z M 434.890625 430.558594 "/>
<path style="fill-rule:nonzero;fill:rgb(10.980392%,52.54902%,93.333333%);fill-opacity:1;stroke-width:0.75;stroke-linecap:round;stroke-linejoin:round;stroke:rgb(0%,0%,0%);stroke-opacity:1;stroke-miterlimit:10;" d="M 442.726562 430.558594 L 450.5625 430.558594 L 450.5625 216.726562 L 442.726562 216.726562 Z M 442.726562 430.558594 "/>
<path style="fill-rule:nonzero;fill:rgb(38.823529%,72.156863%,100%);fill-opacity:1;stroke-width:0.75;stroke-linecap:round;stroke-linejoin:round;stroke:rgb(0%,0%,0%);stroke-opacity:1;stroke-miterlimit:10;" d="M 450.5625 430.558594 L 458.398438 430.558594 L 458.398438 86.5625 L 450.5625 86.5625 Z M 450.5625 430.558594 "/>
</g>
<g clip-path="url(#clip2)" clip-rule="nonzero">
<g style="fill:rgb(0%,0%,0%);fill-opacity:1;">
  <use xlink:href="#glyph0-1" x="85.574219" y="457.357422"/>
</g>
<g style="fill:rgb(0%,0%,0%);fill-opacity:1;">
  <use xlink:href="#glyph0-2" x="124.757812" y="457.357422"/>
</g>
<g style="fill:rgb(0%,0%,0%);fill-opacity:1;">
  <use xlink:href="#glyph0-3" x="163.941406" y="457.357422"/>
</g>
<g style="fill:rgb(0%,0%,0%);fill-opacity:1;">
  <use xlink:href="#glyph0-4" x="203.125" y="457.357422"/>
</g>
<g style="fill:rgb(0%,0%,0%);fill-opacity:1;">
  <use xlink:href="#glyph0-5" x="242.308594" y="457.357422"/>
</g>
<g style="fill:rgb(0%,0%,0%);fill-opacity:1;">
  <use xlink:href="#glyph0-6" x="281.992188" y="457.357422"/>
</g>
<g style="fill:rgb(0%,0%,0%);fill-opacity:1;">
  <use xlink:href="#glyph0-7" x="320.175781" y="457.357422"/>
</g>
<g style="fill:rgb(0%,0%,0%);fill-opacity:1;">
  <use xlink:href="#glyph0-8" x="359.859375" y="457.357422"/>
</g>
<g style="fill:rgb(0%,0%,0%);fill-opacity:1;">
  <use xlink:href="#glyph0-9" x="401.542969" y="457.357422"/>
</g>
<g style="fill:rgb(0%,0%,0%);fill-opacity:1;">
  <use xlink:href="#glyph0-10" x="439.726562" y="457.357422"/>
</g>
</g>
<g clip-path="url(#clip3)" clip-rule="nonzero">
<g style="fill:rgb(0%,0%,0%);fill-opacity:1;">
  <use xlink:href="#glyph1-1" x="152.398438" y="34.116211"/>
  <use xlink:href="#glyph1-2" x="162.799805" y="34.116211"/>
  <use xlink:href="#glyph1-3" x="172.40918" y="34.116211"/>
  <use xlink:href="#glyph1-3" x="182.810547" y="34.116211"/>
  <use xlink:href="#glyph1-4" x="193.211914" y="34.116211"/>
  <use xlink:href="#glyph1-5" x="197.216797" y="34.116211"/>
  <use xlink:href="#glyph1-6" x="206.018555" y="34.116211"/>
  <use xlink:href="#glyph1-7" x="214.02832" y="34.116211"/>
  <use xlink:href="#glyph1-8" x="219.632812" y="34.116211"/>
  <use xlink:href="#glyph1-9" x="224.429688" y="34.116211"/>
  <use xlink:href="#glyph1-7" x="233.231445" y="34.116211"/>
  <use xlink:href="#glyph1-10" x="238.835938" y="34.116211"/>
  <use xlink:href="#glyph1-11" x="251.642578" y="34.116211"/>
  <use xlink:href="#glyph1-12" x="259.652344" y="34.116211"/>
  <use xlink:href="#glyph1-13" x="268.454102" y="34.116211"/>
  <use xlink:href="#glyph1-6" x="276.463867" y="34.116211"/>
  <use xlink:href="#glyph1-4" x="284.473633" y="34.116211"/>
  <use xlink:href="#glyph1-14" x="288.478516" y="34.116211"/>
  <use xlink:href="#glyph1-15" x="299.686523" y="34.116211"/>
  <use xlink:href="#glyph1-16" x="303.691406" y="34.116211"/>
  <use xlink:href="#glyph1-17" x="308.488281" y="34.116211"/>
  <use xlink:href="#glyph1-4" x="317.290039" y="34.116211"/>
  <use xlink:href="#glyph1-18" x="321.294922" y="34.116211"/>
  <use xlink:href="#glyph1-11" x="330.09668" y="34.116211"/>
  <use xlink:href="#glyph1-16" x="338.106445" y="34.116211"/>
  <use xlink:href="#glyph1-11" x="342.90332" y="34.116211"/>
  <use xlink:href="#glyph1-19" x="350.913086" y="34.116211"/>
  <use xlink:href="#glyph1-6" x="358.922852" y="34.116211"/>
  <use xlink:href="#glyph1-16" x="366.932617" y="34.116211"/>
  <use xlink:href="#glyph1-19" x="371.729492" y="34.116211"/>
</g>
<g style="fill:rgb(0%,0%,0%);fill-opacity:1;">
  <use xlink:href="#glyph2-1" x="13.833984" y="267.300781"/>
  <use xlink:href="#glyph2-2" x="13.833984" y="261.300781"/>
  <use xlink:href="#glyph2-3" x="13.833984" y="254.628906"/>
  <use xlink:href="#glyph2-4" x="13.833984" y="248.628906"/>
  <use xlink:href="#glyph2-5" x="13.833984" y="241.957031"/>
  <use xlink:href="#glyph2-6" x="13.833984" y="235.285156"/>
  <use xlink:href="#glyph2-1" x="13.833984" y="228.613281"/>
</g>
</g>
<g clip-path="url(#clip4)" clip-rule="nonzero">
<path style="fill:none;stroke-width:0.75;stroke-linecap:round;stroke-linejoin:round;stroke:rgb(0%,0%,0%);stroke-opacity:1;stroke-miterlimit:10;" d="M 59.039062 430.558594 L 59.039062 83.808594 "/>
<path style="fill:none;stroke-width:0.75;stroke-linecap:round;stroke-linejoin:round;stroke:rgb(0%,0%,0%);stroke-opacity:1;stroke-miterlimit:10;" d="M 59.039062 430.558594 L 51.839844 430.558594 "/>
<path style="fill:none;stroke-width:0.75;stroke-linecap:round;stroke-linejoin:round;stroke:rgb(0%,0%,0%);stroke-opacity:1;stroke-miterlimit:10;" d="M 59.039062 381.023438 L 51.839844 381.023438 "/>
<path style="fill:none;stroke-width:0.75;stroke-linecap:round;stroke-linejoin:round;stroke:rgb(0%,0%,0%);stroke-opacity:1;stroke-miterlimit:10;" d="M 59.039062 331.488281 L 51.839844 331.488281 "/>
<path style="fill:none;stroke-width:0.75;stroke-linecap:round;stroke-linejoin:round;stroke:rgb(0%,0%,0%);stroke-opacity:1;stroke-miterlimit:10;" d="M 59.039062 281.953125 L 51.839844 281.953125 "/>
<path style="fill:none;stroke-width:0.75;stroke-linecap:round;stroke-linejoin:round;stroke:rgb(0%,0%,0%);stroke-opacity:1;stroke-miterlimit:10;" d="M 59.039062 232.414062 L 51.839844 232.414062 "/>
<path style="fill:none;stroke-width:0.75;stroke-linecap:round;stroke-linejoin:round;stroke:rgb(0%,0%,0%);stroke-opacity:1;stroke-miterlimit:10;" d="M 59.039062 182.878906 L 51.839844 182.878906 "/>
<path style="fill:none;stroke-width:0.75;stroke-linecap:round;stroke-linejoin:round;stroke:rgb(0%,0%,0%);stroke-opacity:1;stroke-miterlimit:10;" d="M 59.039062 133.34375 L 51.839844 133.34375 "/>
<path style="fill:none;stroke-width:0.75;stroke-linecap:round;stroke-linejoin:round;stroke:rgb(0%,0%,0%);stroke-opacity:1;stroke-miterlimit:10;" d="M 59.039062 83.808594 L 51.839844 83.808594 "/>
<g style="fill:rgb(0%,0%,0%);fill-opacity:1;">
  <use xlink:href="#glyph2-7" x="42.634766" y="434.058594"/>
</g>
<g style="fill:rgb(0%,0%,0%);fill-opacity:1;">
  <use xlink:href="#glyph2-8" x="42.634766" y="388.023438"/>
  <use xlink:href="#glyph2-7" x="42.634766" y="381.351562"/>
</g>
<g style="fill:rgb(0%,0%,0%);fill-opacity:1;">
  <use xlink:href="#glyph2-9" x="42.634766" y="338.488281"/>
  <use xlink:href="#glyph2-7" x="42.634766" y="331.816406"/>
</g>
<g style="fill:rgb(0%,0%,0%);fill-opacity:1;">
  <use xlink:href="#glyph2-10" x="42.634766" y="288.953125"/>
  <use xlink:href="#glyph2-7" x="42.634766" y="282.28125"/>
</g>
<g style="fill:rgb(0%,0%,0%);fill-opacity:1;">
  <use xlink:href="#glyph2-11" x="42.634766" y="239.414062"/>
  <use xlink:href="#glyph2-7" x="42.634766" y="232.742188"/>
</g>
<g style="fill:rgb(0%,0%,0%);fill-opacity:1;">
  <use xlink:href="#glyph2-12" x="42.634766" y="189.878906"/>
  <use xlink:href="#glyph2-7" x="42.634766" y="183.207031"/>
</g>
<g style="fill:rgb(0%,0%,0%);fill-opacity:1;">
  <use xlink:href="#glyph2-13" x="42.634766" y="140.34375"/>
  <use xlink:href="#glyph2-7" x="42.634766" y="133.671875"/>
</g>
<g style="fill:rgb(0%,0%,0%);fill-opacity:1;">
  <use xlink:href="#glyph2-14" x="42.634766" y="90.808594"/>
  <use xlink:href="#glyph2-7" x="42.634766" y="84.136719"/>
</g>
</g>
<g clip-path="url(#clip5)" clip-rule="nonzero">
<path style="fill-rule:nonzero;fill:rgb(100%,100%,100%);fill-opacity:1;stroke-width:0.75;stroke-linecap:round;stroke-linejoin:round;stroke:rgb(0%,0%,0%);stroke-opacity:1;stroke-miterlimit:10;" d="M 163.21875 59.039062 L 369.578125 59.039062 L 369.578125 87.839844 L 163.21875 87.839844 Z M 163.21875 59.039062 "/>
<path style="fill-rule:nonzero;fill:rgb(0%,0%,54.509804%);fill-opacity:1;stroke-width:0.75;stroke-linecap:round;stroke-linejoin:round;stroke:rgb(0%,0%,0%);stroke-opacity:1;stroke-miterlimit:10;" d="M 174.019531 69.839844 L 182.660156 69.839844 L 182.660156 77.039062 L 174.019531 77.039062 Z M 174.019531 69.839844 "/>
<path style="fill-rule:nonzero;fill:rgb(0%,0%,100%);fill-opacity:1;stroke-width:0.75;stroke-linecap:round;stroke-linejoin:round;stroke:rgb(0%,0%,0%);stroke-opacity:1;stroke-miterlimit:10;" d="M 224.261719 69.839844 L 232.902344 69.839844 L 232.902344 77.039062 L 224.261719 77.039062 Z M 224.261719 69.839844 "/>
<path style="fill-rule:nonzero;fill:rgb(10.980392%,52.54902%,93.333333%);fill-opacity:1;stroke-width:0.75;stroke-linecap:round;stroke-linejoin:round;stroke:rgb(0%,0%,0%);stroke-opacity:1;stroke-miterlimit:10;" d="M 274.5 69.839844 L 283.140625 69.839844 L 283.140625 77.039062 L 274.5 77.039062 Z M 274.5 69.839844 "/>
<path style="fill-rule:nonzero;fill:rgb(38.823529%,72.156863%,100%);fill-opacity:1;stroke-width:0.75;stroke-linecap:round;stroke-linejoin:round;stroke:rgb(0%,0%,0%);stroke-opacity:1;stroke-miterlimit:10;" d="M 324.738281 69.839844 L 333.378906 69.839844 L 333.378906 77.039062 L 324.738281 77.039062 Z M 324.738281 69.839844 "/>
<g style="fill:rgb(0%,0%,0%);fill-opacity:1;">
  <use xlink:href="#glyph0-11" x="193.460938" y="77.376953"/>
  <use xlink:href="#glyph0-12" x="202.796875" y="77.376953"/>
</g>
<g style="fill:rgb(0%,0%,0%);fill-opacity:1;">
  <use xlink:href="#glyph0-13" x="243.699219" y="77.376953"/>
  <use xlink:href="#glyph0-12" x="251.03125" y="77.376953"/>
  <use xlink:href="#glyph0-1" x="255.027344" y="77.376953"/>
</g>
<g style="fill:rgb(0%,0%,0%);fill-opacity:1;">
  <use xlink:href="#glyph0-13" x="293.941406" y="77.376953"/>
  <use xlink:href="#glyph0-12" x="301.273438" y="77.376953"/>
  <use xlink:href="#glyph0-2" x="305.269531" y="77.376953"/>
</g>
<g style="fill:rgb(0%,0%,0%);fill-opacity:1;">
  <use xlink:href="#glyph0-13" x="344.179688" y="77.376953"/>
  <use xlink:href="#glyph0-12" x="351.511719" y="77.376953"/>
  <use xlink:href="#glyph0-3" x="355.507812" y="77.376953"/>
</g>
</g>
</g>
</svg>
