<?xml version="1.0" encoding="UTF-8" standalone="no"?>
<svg width="270.581mm" height="202.142mm"
 xmlns="http://www.w3.org/2000/svg" xmlns:xlink="http://www.w3.org/1999/xlink"  version="1.2" baseProfile="tiny">
<title>Qt Svg Document</title>
<desc>Generated with Qt</desc>
<defs>
</defs>
<g fill="none" stroke="black" vector-effect="non-scaling-stroke" stroke-width="1" fill-rule="evenodd" stroke-linecap="square" stroke-linejoin="bevel" >

<g fill="#ffffff" fill-opacity="1" stroke="none" transform="matrix(1,0,0,1,-44,-16)"
font-family="DejaVu Sans" font-size="12" font-weight="400" font-style="normal" 
>
<path fill-rule="evenodd" d="M44,16 L811,16 L811,589 L44,589 L44,16"/>
</g>

<g fill="none" stroke="#0000c0" stroke-opacity="1" stroke-dasharray="4,2" stroke-dashoffset="0" vector-effect="non-scaling-stroke" stroke-width="1" stroke-linecap="square" stroke-linejoin="bevel" transform="matrix(1,0,0,1,-44,-16)"
font-family="DejaVu Sans" font-size="12" font-weight="400" font-style="normal" 
>
<polyline fill="none" points="235,79 235,589 " />
<polyline fill="none" points="92,80 92,589 " />
<polyline fill="none" points="740,79 740,419 " />
</g>

<g fill="#ffffff" fill-opacity="1" stroke="none" transform="matrix(1,0,0,1,-44,-16)"
font-family="DejaVu Sans" font-size="12" font-weight="400" font-style="normal" 
>
<path fill-rule="evenodd" d="M226,105 L243,105 L243,569 L226,569 L226,105"/>
</g>

<g fill="none" stroke="#0000c0" stroke-opacity="1" vector-effect="non-scaling-stroke" stroke-width="1" stroke-linecap="square" stroke-linejoin="bevel" transform="matrix(1,0,0,1,-44,-16)"
font-family="DejaVu Sans" font-size="12" font-weight="400" font-style="normal" 
>
<path fill-rule="evenodd" d="M226,105 L243,105 L243,569 L226,569 L226,105"/>
<polyline fill="none" points="92,109 226,109 " />
</g>

<g fill="#0000c0" fill-opacity="1" stroke="#0000c0" stroke-opacity="1" vector-effect="non-scaling-stroke" stroke-width="1" stroke-linecap="square" stroke-linejoin="bevel" transform="matrix(1,0,0,1,-44,-16)"
font-family="DejaVu Sans" font-size="12" font-weight="400" font-style="normal" 
>
<path fill-rule="evenodd" d="M225,109 L221,106 L221,112 L225,109"/>
<polyline fill="none" points="92,566 96,563 " />
<polyline fill="none" points="92,566 96,569 " />
</g>

<g fill="#0000c0" fill-opacity="1" stroke="#0000c0" stroke-opacity="1" stroke-dasharray="1,2" stroke-dashoffset="0" vector-effect="non-scaling-stroke" stroke-width="1" stroke-linecap="square" stroke-linejoin="bevel" transform="matrix(1,0,0,1,-44,-16)"
font-family="DejaVu Sans" font-size="12" font-weight="400" font-style="normal" 
>
<polyline fill="none" points="92,566 226,566 " />
</g>

<g fill="#a7beff" fill-opacity="1" stroke="#0000c0" stroke-opacity="1" vector-effect="non-scaling-stroke" stroke-width="1" stroke-linecap="square" stroke-linejoin="bevel" transform="matrix(1,0,0,1,-44,-16)"
font-family="DejaVu Sans" font-size="12" font-weight="400" font-style="normal" 
>
<path fill-rule="evenodd" d="M200,50 L253,50 L253,74 L200,74 L200,50"/>
</g>

<g fill="#a7beff" fill-opacity="1" stroke="#000000" stroke-opacity="1" vector-effect="non-scaling-stroke" stroke-width="1" stroke-linecap="square" stroke-linejoin="bevel" transform="matrix(1,0,0,1,-44,-16)"
font-family="DejaVu Sans" font-size="12" font-weight="400" font-style="normal" 
>
</g>

<g fill="#a7beff" fill-opacity="1" stroke="#000000" stroke-opacity="1" vector-effect="non-scaling-stroke" stroke-width="1" stroke-linecap="square" stroke-linejoin="bevel" transform="matrix(1,0,0,1,-44,-16)"
font-family="DejaVu Sans" font-size="12" font-weight="400" font-style="normal" 
>
<text fill="#000000" fill-opacity="1" stroke="none" xml:space="preserve" x="205" y="66" font-family="DejaVu Sans" font-size="12" font-weight="400" font-style="normal" 
 > : HPCC</text>
</g>

<g fill="none" stroke="#000000" stroke-opacity="1" stroke-width="1" stroke-linecap="butt" stroke-linejoin="bevel" transform="matrix(1,0,0,1,-44,-16)"
font-family="DejaVu Sans" font-size="12" font-weight="400" font-style="normal" 
>
<polyline fill="none" points="205,68 248,68 " />
</g>

<g fill="#a7beff" fill-opacity="1" stroke="#000000" stroke-opacity="1" vector-effect="non-scaling-stroke" stroke-width="1" stroke-linecap="square" stroke-linejoin="bevel" transform="matrix(1,0,0,1,-44,-16)"
font-family="DejaVu Sans" font-size="12" font-weight="400" font-style="normal" 
>
</g>

<g fill="#a7beff" fill-opacity="1" stroke="#0000c0" stroke-opacity="1" vector-effect="non-scaling-stroke" stroke-width="1" stroke-linecap="square" stroke-linejoin="bevel" transform="matrix(1,0,0,1,-44,-16)"
font-family="DejaVu Sans" font-size="12" font-weight="400" font-style="normal" 
>
<path fill-rule="evenodd" d="M670,50 L776,50 L776,74 L670,74 L670,50"/>
</g>

<g fill="#a7beff" fill-opacity="1" stroke="#000000" stroke-opacity="1" vector-effect="non-scaling-stroke" stroke-width="1" stroke-linecap="square" stroke-linejoin="bevel" transform="matrix(1,0,0,1,-44,-16)"
font-family="DejaVu Sans" font-size="12" font-weight="400" font-style="normal" 
>
</g>

<g fill="#a7beff" fill-opacity="1" stroke="#000000" stroke-opacity="1" vector-effect="non-scaling-stroke" stroke-width="1" stroke-linecap="square" stroke-linejoin="bevel" transform="matrix(1,0,0,1,-44,-16)"
font-family="DejaVu Sans" font-size="12" font-weight="400" font-style="normal" 
>
<text fill="#000000" fill-opacity="1" stroke="none" xml:space="preserve" x="675" y="66" font-family="DejaVu Sans" font-size="12" font-weight="400" font-style="normal" 
 > : PrincipalCurve</text>
</g>

<g fill="none" stroke="#000000" stroke-opacity="1" stroke-width="1" stroke-linecap="butt" stroke-linejoin="bevel" transform="matrix(1,0,0,1,-44,-16)"
font-family="DejaVu Sans" font-size="12" font-weight="400" font-style="normal" 
>
<polyline fill="none" points="675,68 771,68 " />
</g>

<g fill="#a7beff" fill-opacity="1" stroke="#000000" stroke-opacity="1" vector-effect="non-scaling-stroke" stroke-width="1" stroke-linecap="square" stroke-linejoin="bevel" transform="matrix(1,0,0,1,-44,-16)"
font-family="DejaVu Sans" font-size="12" font-weight="400" font-style="normal" 
>
</g>

<g fill="#a7beff" fill-opacity="1" stroke="#0000c0" stroke-opacity="1" vector-effect="non-scaling-stroke" stroke-width="1" stroke-linecap="square" stroke-linejoin="bevel" transform="matrix(1,0,0,1,-44,-16)"
font-family="DejaVu Sans" font-size="12" font-weight="400" font-style="normal" 
>
<path fill-rule="evenodd" d="M90,22.5 C90,26.0899 85.5228,29 80,29 C74.4772,29 70,26.0899 70,22.5 C70,18.9101 74.4772,16 80,16 C85.5228,16 90,18.9101 90,22.5 "/>
<polyline fill="none" points="80,29 80,42 " />
<polyline fill="none" points="80,42 70,56 " />
<polyline fill="none" points="80,42 90,56 " />
<polyline fill="none" points="70,35 90,35 " />
</g>

<g fill="#a7beff" fill-opacity="1" stroke="#000000" stroke-opacity="1" vector-effect="non-scaling-stroke" stroke-width="1" stroke-linecap="square" stroke-linejoin="bevel" transform="matrix(1,0,0,1,-44,-16)"
font-family="DejaVu Sans" font-size="12" font-weight="400" font-style="normal" 
>
</g>

<g fill="#a7beff" fill-opacity="1" stroke="#000000" stroke-opacity="1" vector-effect="non-scaling-stroke" stroke-width="1" stroke-linecap="square" stroke-linejoin="bevel" transform="matrix(1,0,0,1,-44,-16)"
font-family="DejaVu Sans" font-size="12" font-weight="400" font-style="normal" 
>
<text fill="#000000" fill-opacity="1" stroke="none" xml:space="preserve" x="49" y="72" font-family="DejaVu Sans" font-size="12" font-weight="400" font-style="normal" 
 > : Scientist</text>
</g>

<g fill="#a7beff" fill-opacity="1" stroke="#000000" stroke-opacity="1" vector-effect="non-scaling-stroke" stroke-width="1" stroke-linecap="square" stroke-linejoin="bevel" transform="matrix(1,0,0,1,-44,-16)"
font-family="DejaVu Sans" font-size="12" font-weight="400" font-style="normal" 
>
</g>

<g fill="none" stroke="#323232" stroke-opacity="1" vector-effect="non-scaling-stroke" stroke-width="1" stroke-linecap="square" stroke-linejoin="bevel" transform="matrix(1,0,0,1,-44,-16)"
font-family="DejaVu Sans" font-size="12" font-weight="400" font-style="normal" 
>
<text fill="#323232" fill-opacity="1" stroke="none" xml:space="preserve" x="244" y="463" font-family="DejaVu Sans" font-size="12" font-weight="400" font-style="normal" 
 >: choose merge and merge</text>
</g>

<g fill="none" stroke="#323232" stroke-opacity="1" vector-effect="non-scaling-stroke" stroke-width="1" stroke-linecap="square" stroke-linejoin="bevel" transform="matrix(1,0,0,1,-44,-16)"
font-family="DejaVu Sans" font-size="12" font-weight="400" font-style="normal" 
>
<text fill="#323232" fill-opacity="1" stroke="none" xml:space="preserve" x="244" y="333" font-family="DejaVu Sans" font-size="12" font-weight="400" font-style="normal" 
 >: calc. variance of each possible merge, call clustVarSpline()</text>
</g>

<g fill="none" stroke="#323232" stroke-opacity="1" vector-effect="non-scaling-stroke" stroke-width="1" stroke-linecap="square" stroke-linejoin="bevel" transform="matrix(1,0,0,1,-44,-16)"
font-family="DejaVu Sans" font-size="12" font-weight="400" font-style="normal" 
>
<text fill="#323232" fill-opacity="1" stroke="none" xml:space="preserve" x="104" y="93" font-family="DejaVu Sans" font-size="12" font-weight="400" font-style="normal" 
 >: hpcc()</text>
</g>

<g fill="none" stroke="#323232" stroke-opacity="1" vector-effect="non-scaling-stroke" stroke-width="1" stroke-linecap="square" stroke-linejoin="bevel" transform="matrix(1,0,0,1,-44,-16)"
font-family="DejaVu Sans" font-size="12" font-weight="400" font-style="normal" 
>
<text fill="#323232" fill-opacity="1" stroke="none" xml:space="preserve" x="244" y="203" font-family="DejaVu Sans" font-size="12" font-weight="400" font-style="normal" 
 >: principalCurve()</text>
</g>

<g fill="none" stroke="#323232" stroke-opacity="1" vector-effect="non-scaling-stroke" stroke-width="1" stroke-linecap="square" stroke-linejoin="bevel" transform="matrix(1,0,0,1,-44,-16)"
font-family="DejaVu Sans" font-size="12" font-weight="400" font-style="normal" 
>
<text fill="#323232" fill-opacity="1" stroke="none" xml:space="preserve" x="244" y="373" font-family="DejaVu Sans" font-size="12" font-weight="400" font-style="normal" 
 >: principalCurve()</text>
</g>

<g fill="none" stroke="#323232" stroke-opacity="1" vector-effect="non-scaling-stroke" stroke-width="1" stroke-linecap="square" stroke-linejoin="bevel" transform="matrix(1,0,0,1,-44,-16)"
font-family="DejaVu Sans" font-size="12" font-weight="400" font-style="normal" 
>
<text fill="#323232" fill-opacity="1" stroke="none" xml:space="preserve" x="254" y="113" font-family="DejaVu Sans" font-size="12" font-weight="400" font-style="normal" 
 >[loop while merges are possible]</text>
</g>

<g fill="none" stroke="#323232" stroke-opacity="1" vector-effect="non-scaling-stroke" stroke-width="1" stroke-linecap="square" stroke-linejoin="bevel" transform="matrix(1,0,0,1,-44,-16)"
font-family="DejaVu Sans" font-size="12" font-weight="400" font-style="normal" 
>
<text fill="#323232" fill-opacity="1" stroke="none" xml:space="preserve" x="244" y="163" font-family="DejaVu Sans" font-size="12" font-weight="400" font-style="normal" 
 >: find variance of each cluster, call clustVarSpline()</text>
</g>

<g fill="#ffffff" fill-opacity="1" stroke="none" transform="matrix(1,0,0,1,-44,-16)"
font-family="DejaVu Sans" font-size="12" font-weight="400" font-style="normal" 
>
<path fill-rule="evenodd" d="M731,213 L748,213 L748,233 L731,233 L731,213"/>
</g>

<g fill="none" stroke="#0000c0" stroke-opacity="1" vector-effect="non-scaling-stroke" stroke-width="1" stroke-linecap="square" stroke-linejoin="bevel" transform="matrix(1,0,0,1,-44,-16)"
font-family="DejaVu Sans" font-size="12" font-weight="400" font-style="normal" 
>
<path fill-rule="evenodd" d="M731,213 L748,213 L748,233 L731,233 L731,213"/>
<polyline fill="none" points="243,217 731,217 " />
</g>

<g fill="#0000c0" fill-opacity="1" stroke="#0000c0" stroke-opacity="1" vector-effect="non-scaling-stroke" stroke-width="1" stroke-linecap="square" stroke-linejoin="bevel" transform="matrix(1,0,0,1,-44,-16)"
font-family="DejaVu Sans" font-size="12" font-weight="400" font-style="normal" 
>
<path fill-rule="evenodd" d="M730,217 L726,214 L726,220 L730,217"/>
<polyline fill="none" points="243,230 247,227 " />
<polyline fill="none" points="243,230 247,233 " />
</g>

<g fill="#0000c0" fill-opacity="1" stroke="#0000c0" stroke-opacity="1" stroke-dasharray="1,2" stroke-dashoffset="0" vector-effect="non-scaling-stroke" stroke-width="1" stroke-linecap="square" stroke-linejoin="bevel" transform="matrix(1,0,0,1,-44,-16)"
font-family="DejaVu Sans" font-size="12" font-weight="400" font-style="normal" 
>
<polyline fill="none" points="243,230 731,230 " />
</g>

<g fill="#ffffff" fill-opacity="1" stroke="none" transform="matrix(1,0,0,1,-44,-16)"
font-family="DejaVu Sans" font-size="12" font-weight="400" font-style="normal" 
>
<path fill-rule="evenodd" d="M233,474 L250,474 L250,521 L233,521 L233,474"/>
</g>

<g fill="none" stroke="#0000c0" stroke-opacity="1" vector-effect="non-scaling-stroke" stroke-width="1" stroke-linecap="square" stroke-linejoin="bevel" transform="matrix(1,0,0,1,-44,-16)"
font-family="DejaVu Sans" font-size="12" font-weight="400" font-style="normal" 
>
<path fill-rule="evenodd" d="M233,474 L250,474 L250,521 L233,521 L233,474"/>
<polyline fill="none" points="250,477 282,477 " />
<polyline fill="none" points="282,477 282,518 " />
<polyline fill="none" points="250,518 254,515 " />
<polyline fill="none" points="250,518 254,521 " />
<polyline fill="none" points="250,518 282,518 " />
</g>

<g fill="#ffffff" fill-opacity="1" stroke="none" transform="matrix(1,0,0,1,-44,-16)"
font-family="DejaVu Sans" font-size="12" font-weight="400" font-style="normal" 
>
<path fill-rule="evenodd" d="M731,379 L748,379 L748,399 L731,399 L731,379"/>
</g>

<g fill="none" stroke="#0000c0" stroke-opacity="1" vector-effect="non-scaling-stroke" stroke-width="1" stroke-linecap="square" stroke-linejoin="bevel" transform="matrix(1,0,0,1,-44,-16)"
font-family="DejaVu Sans" font-size="12" font-weight="400" font-style="normal" 
>
<path fill-rule="evenodd" d="M731,379 L748,379 L748,399 L731,399 L731,379"/>
<polyline fill="none" points="243,383 731,383 " />
</g>

<g fill="#0000c0" fill-opacity="1" stroke="#0000c0" stroke-opacity="1" vector-effect="non-scaling-stroke" stroke-width="1" stroke-linecap="square" stroke-linejoin="bevel" transform="matrix(1,0,0,1,-44,-16)"
font-family="DejaVu Sans" font-size="12" font-weight="400" font-style="normal" 
>
<path fill-rule="evenodd" d="M730,383 L726,380 L726,386 L730,383"/>
<polyline fill="none" points="243,396 247,393 " />
<polyline fill="none" points="243,396 247,399 " />
</g>

<g fill="#0000c0" fill-opacity="1" stroke="#0000c0" stroke-opacity="1" stroke-dasharray="1,2" stroke-dashoffset="0" vector-effect="non-scaling-stroke" stroke-width="1" stroke-linecap="square" stroke-linejoin="bevel" transform="matrix(1,0,0,1,-44,-16)"
font-family="DejaVu Sans" font-size="12" font-weight="400" font-style="normal" 
>
<polyline fill="none" points="243,396 731,396 " />
</g>

<g fill="#ffffff" fill-opacity="1" stroke="none" transform="matrix(1,0,0,1,-44,-16)"
font-family="DejaVu Sans" font-size="12" font-weight="400" font-style="normal" 
>
<path fill-rule="evenodd" d="M233,341 L250,341 L250,424 L233,424 L233,341"/>
</g>

<g fill="none" stroke="#0000c0" stroke-opacity="1" vector-effect="non-scaling-stroke" stroke-width="1" stroke-linecap="square" stroke-linejoin="bevel" transform="matrix(1,0,0,1,-44,-16)"
font-family="DejaVu Sans" font-size="12" font-weight="400" font-style="normal" 
>
<path fill-rule="evenodd" d="M233,341 L250,341 L250,424 L233,424 L233,341"/>
<polyline fill="none" points="250,344 282,344 " />
<polyline fill="none" points="282,344 282,421 " />
<polyline fill="none" points="250,421 254,418 " />
<polyline fill="none" points="250,421 254,424 " />
<polyline fill="none" points="250,421 282,421 " />
</g>

<g fill="#ffffff" fill-opacity="1" stroke="none" transform="matrix(1,0,0,1,-44,-16)"
font-family="DejaVu Sans" font-size="12" font-weight="400" font-style="normal" 
>
<path fill-rule="evenodd" d="M233,176 L250,176 L250,263 L233,263 L233,176"/>
</g>

<g fill="none" stroke="#0000c0" stroke-opacity="1" vector-effect="non-scaling-stroke" stroke-width="1" stroke-linecap="square" stroke-linejoin="bevel" transform="matrix(1,0,0,1,-44,-16)"
font-family="DejaVu Sans" font-size="12" font-weight="400" font-style="normal" 
>
<path fill-rule="evenodd" d="M233,176 L250,176 L250,263 L233,263 L233,176"/>
<polyline fill="none" points="250,179 282,179 " />
<polyline fill="none" points="282,179 282,260 " />
<polyline fill="none" points="250,260 254,257 " />
<polyline fill="none" points="250,260 254,263 " />
<polyline fill="none" points="250,260 282,260 " />
</g>
</g>
</svg>
